{
    "fonts": [
        "src/fonts/**"
    ],
    "js": [
        "node_modules/jquery/dist/jquery.js",
        "node_modules/swiper/js/swiper.js", 
        "node_modules/lazysizes/lazysizes.js",
        "node_modules/@fancyapps/fancybox/dist/jquery.fancybox.js",
        "node_modules/flatpickr/dist/flatpickr.js"
    ],
    "css": [
        "node_modules/swiper/css/swiper.css",
        "node_modules/@fancyapps/fancybox/dist/jquery.fancybox.css",
        "node_modules/flatpickr/dist/flatpickr.css"
    ]
}