<svg id="user" xmlns="http://www.w3.org/2000/svg" width="17.52" height="21" viewBox="0 0 17.52 21">
  <path id="Path_10515" data-name="Path 10515" d="M92.089,10.116a4.894,4.894,0,0,0,3.576-1.482,4.894,4.894,0,0,0,1.482-3.576,4.895,4.895,0,0,0-1.482-3.576,5.057,5.057,0,0,0-7.152,0,4.894,4.894,0,0,0-1.482,3.576,4.894,4.894,0,0,0,1.482,3.576A4.9,4.9,0,0,0,92.089,10.116Zm0,0" transform="translate(-83.462)" fill="#b69256"/>
  <path id="Path_10516" data-name="Path 10516" d="M17.478,253.32a12.493,12.493,0,0,0-.17-1.327,10.454,10.454,0,0,0-.326-1.334,6.59,6.59,0,0,0-.548-1.244,4.7,4.7,0,0,0-.827-1.078,3.646,3.646,0,0,0-1.188-.746,4.106,4.106,0,0,0-1.517-.274,1.539,1.539,0,0,0-.822.349c-.246.161-.535.347-.856.552a4.907,4.907,0,0,1-1.108.488,4.3,4.3,0,0,1-2.711,0,4.9,4.9,0,0,1-1.107-.488c-.319-.2-.607-.389-.857-.552a1.537,1.537,0,0,0-.822-.349,4.1,4.1,0,0,0-1.516.275,3.643,3.643,0,0,0-1.188.746,4.7,4.7,0,0,0-.827,1.078,6.6,6.6,0,0,0-.548,1.244,10.48,10.48,0,0,0-.326,1.334,12.449,12.449,0,0,0-.17,1.327c-.028.4-.042.819-.042,1.24A3.487,3.487,0,0,0,1.036,257.2a3.728,3.728,0,0,0,2.669.974H13.816a3.727,3.727,0,0,0,2.669-.974,3.485,3.485,0,0,0,1.036-2.638C17.52,254.138,17.506,253.72,17.478,253.32Zm0,0" transform="translate(0 -237.173)" fill="#b69256"/>
</svg>
