<svg xmlns="http://www.w3.org/2000/svg" width="14.684" height="21.354" viewBox="0 0 14.684 21.354">
  <g id="location_2_" data-name="location (2)" transform="translate(224.032 0)">
    <path id="Path_10013" data-name="Path 10013" d="M93.631,3.656A7.246,7.246,0,0,0,87.474,0c-.109,0-.219,0-.329,0a7.247,7.247,0,0,0-6.158,3.655,7.434,7.434,0,0,0-.1,7.346l5.3,9.692.007.013a1.287,1.287,0,0,0,2.233,0l.007-.013L93.728,11a7.434,7.434,0,0,0-.1-7.346ZM87.309,9.676a3,3,0,1,1,3-3A3.006,3.006,0,0,1,87.309,9.676Z" transform="translate(-304 0)" fill="#b69256"/>
  </g>
</svg>
