<svg xmlns="http://www.w3.org/2000/svg" width="15.797" height="15.68" viewBox="0 0 15.797 15.68">
  <g id="business-and-trade" transform="translate(0 -0.178)">
    <path id="Path_10014" data-name="Path 10014" d="M8.577,1.292,1.343.192A1.167,1.167,0,0,0,.408.449,1.177,1.177,0,0,0,0,1.331V15.2a.66.66,0,0,0,.658.658H2.8V12.4a1.149,1.149,0,0,1,1.152-1.152H5.595A1.149,1.149,0,0,1,6.747,12.4v3.456h2.8V2.43A1.153,1.153,0,0,0,8.577,1.292ZM3.62,9.77H2.633a.494.494,0,1,1,0-.987H3.62a.494.494,0,1,1,0,.987Zm0-1.975H2.633a.494.494,0,1,1,0-.987H3.62a.494.494,0,1,1,0,.987Zm0-1.975H2.633a.494.494,0,1,1,0-.987H3.62a.494.494,0,1,1,0,.987Zm0-1.975H2.633a.494.494,0,1,1,0-.987H3.62a.494.494,0,1,1,0,.987ZM6.911,9.77H5.924a.494.494,0,0,1,0-.987h.987a.494.494,0,1,1,0,.987Zm0-1.975H5.924a.494.494,0,0,1,0-.987h.987a.494.494,0,0,1,0,.987Zm0-1.975H5.924a.494.494,0,0,1,0-.987h.987a.494.494,0,0,1,0,.987Zm0-1.975H5.924a.494.494,0,1,1,0-.987h.987a.494.494,0,1,1,0,.987Z" transform="translate(0)" fill="#b69256"/>
    <path id="Path_10015" data-name="Path 10015" d="M20.187,10.332,15.5,9.351v9.642h4.443a1.153,1.153,0,0,0,1.152-1.152V11.458A1.146,1.146,0,0,0,20.187,10.332Zm-1.56,6.686h-.987a.494.494,0,0,1,0-.987h.987a.494.494,0,0,1,0,.987Zm0-1.975h-.987a.494.494,0,1,1,0-.987h.987a.494.494,0,1,1,0,.987Zm0-1.975h-.987a.494.494,0,1,1,0-.987h.987a.494.494,0,1,1,0,.987Z" transform="translate(-5.298 -3.135)" fill="#b69256"/>
  </g>
</svg>
